0.26 0.53 0.8 0.33 0.71 0.77 0.07 0.54 0.69 0.11 0.74 0.84 0.22 0.75
0.89 0.41;
0.333321 0.266652 0.21665 0.183315 0.183315 0.183315 0.233317 0.299987
0.349989 0.416658 0.53333 0.583332 0.666669 0.700004 0.750006 0.78334
;
0.166644 0.166644 0.199978 0.216646 0.233313 0.24998 0.24998 0.24998
0.24998 0.750001 0.750001 0.750001 0.750001 0.766669 0.766669 0.766669
;
