0.3 0.7 0.7 0.5 0.7 0.3 0.2 0.6 0.5 0.3 0.7 0.2 0.6 0.7 0.3 0.1 0.8
0.6 0.4 0 0.8 0.4 0.8 0.4 0 1 0 1 0 0 0 1 1 1 1 1 1 0 0 0 1 0 1 0 0
0 1 0;
0.9 0.4 0 0.3 0 0.6 0.7 0.5 0.7 0.5 0.1 0.7 0.9 0.6 0.9 0.5 0.9 0.8
0.1 0.1 0.8 0.9 0.5 0.4 1 1 1 0 0 1 1 0 0 0 0 1 0 0 0 0 0 1 0 1 1 0
1 1;
0.7 0.9 0.9 0.2 0.8 0.5 0.2 0.6 0.9 0 0.8 0.7 0.3 0.2 0.9 0.8 0.4 0.3
0.2 0.4 0.5 0 0 0.1 1 1 1 0 0 1 1 1 1 1 0 1 1 0 1 1 1 1 0 1 0 0 0 1
;
