defautemu 0.5  0.375 0.7 0.1 0.5 0 0;
club1 0.140625 0.40625 0.75 0 0.609375 0 0;
club2 0  0.359375 0.609375 0 1 0 0;
bb-synth 0.703125  0.40625 0.484375 0.75 0.609375 1 0;
bb-1 0.375  0.859375 0.859375 0.25 0.046875 0.0625 0;
gantner 0.53125 0.859375 0.21875 0.25 0.046875 0.0625 0;
gantner 0.53125 0.859375 0.21875 0.25 0.046875 0.0625 0;
