kiu 21.8645 0.320938 0.133352 0.234375 0.859062;
ku 36.2336 0.578125 0.01 1 0.890625;
ka 10 0.578125 0.01 1 0.937187;
tupa 15.4844 0.4375 0.0649382 1 0.890625;
topo 10 0.359375 0.0865964 0.515625 0.953125;
simon 25.9961 0.609375 0.453158 0.625 0.875;
freak 22.3033 0.897344 0.0273842 0.796875 0.868281;
fucked 0 0.897344 0.133352 0.796875 0.923906;
starwars 63.5 0.897344 0.0177828 0.796875 0.875313;
starwarzz 69.4531 0.897344 0.219881 0.796875 0.875313;
glamouis 0.9525 0.171875 0.01 1 1;
bassine 0.415 0.765625 0.523299 1 0.84375;
bassout 0.415 0.71875 0.0453158 1 0.931094;
piu 87.3125 0.65625 0.01 0.234375 0.9375;
glassy 93.4442 0 0.01 0.125 0.9375;
