# Blender v2.72 (sub 0) OBJ File: ''
# www.blender.org
mtllib voiture.mtl
o Cube
v 1.064444 -1.000000 -1.000000
v 1.064444 -1.000000 1.000000
v -0.121718 -1.000000 1.000000
v -0.121717 -1.000000 -1.000000
v 0.782183 0.909424 -0.541523
v 0.782182 0.909424 1.000001
v -0.121718 0.983412 1.000000
v -0.121718 0.983412 -0.541523
v 0.559917 -1.000000 1.000000
v 1.064444 -0.081939 1.627179
v -0.121718 0.000000 1.627179
v 0.420702 0.936373 1.000000
v 0.559917 -0.040413 1.627179
v 1.064443 -1.008825 3.684975
v -0.121719 -1.000000 3.684974
v 0.559916 -1.000780 3.684975
v 1.064443 -0.285770 3.417057
v -0.121719 -0.203831 3.390703
v 0.559916 -0.244244 3.404310
v 0.559917 -1.000000 -1.000000
v 1.064444 0.000000 -0.770761
v -0.121717 0.000000 -0.770762
v 0.420703 0.936373 -0.541523
v 0.989356 0.000000 -0.770761
v 1.064445 -1.003359 -2.878337
v -0.121716 -1.003359 -2.878338
v 0.559918 -1.003359 -2.878337
v 1.064445 -0.003359 -2.957635
v -0.121717 -0.003359 -2.957635
v 0.989357 -0.003359 -2.957635
v 0.761648 -0.852719 1.593261
v 1.306728 -0.852718 1.593261
v 0.761648 -0.955607 1.603395
v 1.306728 -0.955606 1.603395
v 0.761648 -1.054541 1.633406
v 1.306728 -1.054541 1.633406
v 0.761648 -1.145719 1.682142
v 1.306728 -1.145719 1.682142
v 0.761648 -1.225637 1.747729
v 1.306728 -1.225637 1.747729
v 0.761648 -1.291225 1.827647
v 1.306728 -1.291225 1.827647
v 0.761648 -1.339960 1.918826
v 1.306728 -1.339960 1.918826
v 0.761648 -1.369972 2.017760
v 1.306728 -1.369972 2.017760
v 0.761648 -1.380105 2.120648
v 1.306728 -1.380105 2.120648
v 0.761648 -1.369972 2.223536
v 1.306728 -1.369972 2.223536
v 0.761648 -1.339961 2.322470
v 1.306728 -1.339960 2.322470
v 0.761648 -1.291225 2.413648
v 1.306728 -1.291225 2.413648
v 0.761648 -1.225637 2.493567
v 1.306728 -1.225637 2.493567
v 0.761648 -1.145719 2.559154
v 1.306728 -1.145719 2.559154
v 0.761648 -1.054541 2.607890
v 1.306728 -1.054541 2.607890
v 0.761648 -0.955606 2.637901
v 1.306728 -0.955606 2.637901
v 0.761648 -0.852718 2.648035
v 1.306728 -0.852718 2.648035
v 0.761648 -0.749830 2.637901
v 1.306728 -0.749830 2.637901
v 0.761648 -0.650896 2.607890
v 1.306728 -0.650896 2.607890
v 0.761648 -0.559718 2.559154
v 1.306727 -0.559718 2.559154
v 0.761648 -0.479799 2.493567
v 1.306727 -0.479799 2.493567
v 0.761648 -0.414212 2.413648
v 1.306727 -0.414212 2.413648
v 0.761648 -0.365476 2.322470
v 1.306727 -0.365476 2.322470
v 0.761648 -0.335465 2.223535
v 1.306727 -0.335465 2.223535
v 0.761648 -0.325332 2.120647
v 1.306727 -0.325331 2.120647
v 0.761648 -0.335465 2.017759
v 1.306727 -0.335465 2.017759
v 0.761648 -0.365477 1.918825
v 1.306727 -0.365477 1.918825
v 0.761648 -0.414213 1.827647
v 1.306727 -0.414213 1.827647
v 0.761648 -0.479800 1.747728
v 1.306727 -0.479800 1.747728
v 0.761648 -0.559719 1.682141
v 1.306727 -0.559719 1.682141
v 0.761648 -0.650897 1.633406
v 1.306728 -0.650897 1.633406
v 0.761648 -0.749831 1.603394
v 1.306728 -0.749831 1.603394
v 0.745186 -0.906338 -2.564211
v 1.185325 -0.906338 -2.564211
v 0.745186 -1.020206 -2.552996
v 1.185325 -1.020206 -2.552996
v 0.745186 -1.129699 -2.519782
v 1.185325 -1.129699 -2.519782
v 0.745186 -1.230607 -2.465845
v 1.185325 -1.230607 -2.465845
v 0.745186 -1.319055 -2.393258
v 1.185325 -1.319055 -2.393258
v 0.745186 -1.391641 -2.304811
v 1.185325 -1.391641 -2.304811
v 0.745186 -1.445578 -2.203902
v 1.185325 -1.445578 -2.203902
v 0.745186 -1.478792 -2.094410
v 1.185325 -1.478792 -2.094410
v 0.745186 -1.490007 -1.980542
v 1.185325 -1.490007 -1.980542
v 0.745186 -1.478792 -1.866673
v 1.185325 -1.478792 -1.866673
v 0.745186 -1.445578 -1.757181
v 1.185325 -1.445578 -1.757181
v 0.745186 -1.391641 -1.656272
v 1.185325 -1.391641 -1.656272
v 0.745186 -1.319055 -1.567825
v 1.185325 -1.319055 -1.567825
v 0.745186 -1.230607 -1.495238
v 1.185325 -1.230607 -1.495238
v 0.745186 -1.129699 -1.441301
v 1.185325 -1.129699 -1.441301
v 0.745186 -1.020206 -1.408087
v 1.185325 -1.020206 -1.408087
v 0.745186 -0.906338 -1.396872
v 1.185325 -0.906338 -1.396872
v 0.745186 -0.792470 -1.408087
v 1.185325 -0.792470 -1.408087
v 0.745186 -0.682977 -1.441302
v 1.185325 -0.682977 -1.441302
v 0.745186 -0.582068 -1.495238
v 1.185325 -0.582068 -1.495238
v 0.745186 -0.493621 -1.567825
v 1.185325 -0.493621 -1.567825
v 0.745186 -0.421035 -1.656273
v 1.185325 -0.421034 -1.656273
v 0.745186 -0.367098 -1.757181
v 1.185325 -0.367098 -1.757181
v 0.745186 -0.333884 -1.866674
v 1.185325 -0.333884 -1.866674
v 0.745186 -0.322669 -1.980542
v 1.185325 -0.322669 -1.980542
v 0.745186 -0.333884 -2.094410
v 1.185325 -0.333884 -2.094410
v 0.745186 -0.367098 -2.203903
v 1.185325 -0.367098 -2.203903
v 0.745186 -0.421035 -2.304811
v 1.185325 -0.421035 -2.304811
v 0.745186 -0.493622 -2.393259
v 1.185325 -0.493622 -2.393259
v 0.745186 -0.582069 -2.465845
v 1.185325 -0.582069 -2.465845
v 0.745186 -0.682978 -2.519782
v 1.185325 -0.682978 -2.519782
v 0.745186 -0.792471 -2.552996
v 1.185325 -0.792471 -2.552996
v 1.064444 -0.870663 -0.842319
v 1.064444 -0.870663 0.899007
v 0.802121 0.786575 -0.443139
v 0.802489 0.786697 0.899008
v 1.064444 -0.074776 1.445069
v 1.064444 0.000000 -0.642729
v 0.721758 0.793641 -0.443140
v 0.722296 0.793788 0.899007
v 0.951606 -0.064759 1.445069
v 0.951606 -0.000000 -0.642729
v 0.219099 -1.000390 3.684975
v 0.812180 -1.004803 3.684975
v 1.064443 -0.647298 3.551016
v -0.121719 -0.601916 3.537839
v 0.219099 -0.224037 3.397507
v 0.812180 -0.265007 3.410684
v 0.559916 -0.622512 3.544642
v 0.219099 -0.612214 3.541241
v 0.812180 -0.634905 3.547829
v 1.065061 -0.243436 3.531237
v 0.560534 -0.201910 3.518491
v 1.065062 -0.604964 3.665196
v 0.812798 -0.222673 3.524864
v 0.560535 -0.580178 3.658823
v 0.812798 -0.592571 3.662009
v 1.065221 -1.041334 3.922051
v -0.120941 -1.032509 3.922051
v 0.560694 -1.033289 3.922051
v 0.219877 -1.032899 3.922051
v 0.812958 -1.037312 3.922051
v 1.065221 -0.679806 3.788093
v -0.120941 -0.634424 3.774916
v 0.560694 -0.655021 3.781719
v 0.219877 -0.644723 3.778317
v 0.812957 -0.667414 3.784906
v -1.289771 -1.000000 -1.000000
v -1.289771 -1.000000 1.000000
v -0.103609 -1.000000 1.000000
v -0.103610 -1.000000 -1.000000
v -1.007510 0.909424 -0.541523
v -1.007509 0.909424 1.000001
v -0.103609 0.983412 1.000000
v -0.103609 0.983412 -0.541523
v -0.785244 -1.000000 1.000000
v -1.289771 -0.081939 1.627179
v -0.103609 0.000000 1.627179
v -0.646029 0.936373 1.000000
v -0.785244 -0.040413 1.627179
v -1.289770 -1.008825 3.684975
v -0.103608 -1.000000 3.684974
v -0.785243 -1.000780 3.684975
v -1.289770 -0.285770 3.417057
v -0.103608 -0.203831 3.390703
v -0.785243 -0.244244 3.404310
v -0.785244 -1.000000 -1.000000
v -1.289771 0.000000 -0.770761
v -0.103610 0.000000 -0.770762
v -0.646030 0.936373 -0.541523
v -1.214683 0.000000 -0.770761
v -1.289772 -1.003359 -2.878337
v -0.103611 -1.003359 -2.878338
v -0.785245 -1.003359 -2.878337
v -1.289772 -0.003359 -2.957635
v -0.103610 -0.003359 -2.957635
v -1.214684 -0.003359 -2.957635
v -0.986975 -0.852719 1.593261
v -1.532055 -0.852718 1.593261
v -0.986975 -0.955607 1.603395
v -1.532055 -0.955606 1.603395
v -0.986975 -1.054541 1.633406
v -1.532055 -1.054541 1.633406
v -0.986975 -1.145719 1.682142
v -1.532055 -1.145719 1.682142
v -0.986975 -1.225637 1.747729
v -1.532055 -1.225637 1.747729
v -0.986975 -1.291225 1.827647
v -1.532055 -1.291225 1.827647
v -0.986975 -1.339960 1.918826
v -1.532055 -1.339960 1.918826
v -0.986975 -1.369972 2.017760
v -1.532055 -1.369972 2.017760
v -0.986975 -1.380105 2.120648
v -1.532055 -1.380105 2.120648
v -0.986975 -1.369972 2.223536
v -1.532055 -1.369972 2.223536
v -0.986975 -1.339961 2.322470
v -1.532055 -1.339960 2.322470
v -0.986975 -1.291225 2.413648
v -1.532055 -1.291225 2.413648
v -0.986975 -1.225637 2.493567
v -1.532055 -1.225637 2.493567
v -0.986975 -1.145719 2.559154
v -1.532055 -1.145719 2.559154
v -0.986975 -1.054541 2.607890
v -1.532055 -1.054541 2.607890
v -0.986975 -0.955606 2.637901
v -1.532055 -0.955606 2.637901
v -0.986975 -0.852718 2.648035
v -1.532055 -0.852718 2.648035
v -0.986975 -0.749830 2.637901
v -1.532055 -0.749830 2.637901
v -0.986975 -0.650896 2.607890
v -1.532055 -0.650896 2.607890
v -0.986975 -0.559718 2.559154
v -1.532054 -0.559718 2.559154
v -0.986975 -0.479799 2.493567
v -1.532054 -0.479799 2.493567
v -0.986975 -0.414212 2.413648
v -1.532054 -0.414212 2.413648
v -0.986975 -0.365476 2.322470
v -1.532054 -0.365476 2.322470
v -0.986975 -0.335465 2.223535
v -1.532054 -0.335465 2.223535
v -0.986975 -0.325332 2.120647
v -1.532054 -0.325331 2.120647
v -0.986975 -0.335465 2.017759
v -1.532054 -0.335465 2.017759
v -0.986975 -0.365477 1.918825
v -1.532054 -0.365477 1.918825
v -0.986975 -0.414213 1.827647
v -1.532054 -0.414213 1.827647
v -0.986975 -0.479800 1.747728
v -1.532054 -0.479800 1.747728
v -0.986975 -0.559719 1.682141
v -1.532054 -0.559719 1.682141
v -0.986975 -0.650897 1.633406
v -1.532055 -0.650897 1.633406
v -0.986975 -0.749831 1.603394
v -1.532055 -0.749831 1.603394
v -0.970513 -0.906338 -2.564211
v -1.410652 -0.906338 -2.564211
v -0.970513 -1.020206 -2.552996
v -1.410652 -1.020206 -2.552996
v -0.970513 -1.129699 -2.519782
v -1.410652 -1.129699 -2.519782
v -0.970513 -1.230607 -2.465845
v -1.410652 -1.230607 -2.465845
v -0.970513 -1.319055 -2.393258
v -1.410652 -1.319055 -2.393258
v -0.970513 -1.391641 -2.304811
v -1.410652 -1.391641 -2.304811
v -0.970513 -1.445578 -2.203902
v -1.410652 -1.445578 -2.203902
v -0.970513 -1.478792 -2.094410
v -1.410652 -1.478792 -2.094410
v -0.970513 -1.490007 -1.980542
v -1.410652 -1.490007 -1.980542
v -0.970513 -1.478792 -1.866673
v -1.410652 -1.478792 -1.866673
v -0.970513 -1.445578 -1.757181
v -1.410652 -1.445578 -1.757181
v -0.970513 -1.391641 -1.656272
v -1.410652 -1.391641 -1.656272
v -0.970513 -1.319055 -1.567825
v -1.410652 -1.319055 -1.567825
v -0.970513 -1.230607 -1.495238
v -1.410652 -1.230607 -1.495238
v -0.970513 -1.129699 -1.441301
v -1.410652 -1.129699 -1.441301
v -0.970513 -1.020206 -1.408087
v -1.410652 -1.020206 -1.408087
v -0.970513 -0.906338 -1.396872
v -1.410652 -0.906338 -1.396872
v -0.970513 -0.792470 -1.408087
v -1.410652 -0.792470 -1.408087
v -0.970513 -0.682977 -1.441302
v -1.410652 -0.682977 -1.441302
v -0.970513 -0.582068 -1.495238
v -1.410652 -0.582068 -1.495238
v -0.970513 -0.493621 -1.567825
v -1.410652 -0.493621 -1.567825
v -0.970513 -0.421035 -1.656273
v -1.410652 -0.421034 -1.656273
v -0.970513 -0.367098 -1.757181
v -1.410652 -0.367098 -1.757181
v -0.970513 -0.333884 -1.866674
v -1.410652 -0.333884 -1.866674
v -0.970513 -0.322669 -1.980542
v -1.410652 -0.322669 -1.980542
v -0.970513 -0.333884 -2.094410
v -1.410652 -0.333884 -2.094410
v -0.970513 -0.367098 -2.203903
v -1.410652 -0.367098 -2.203903
v -0.970513 -0.421035 -2.304811
v -1.410652 -0.421035 -2.304811
v -0.970513 -0.493622 -2.393259
v -1.410652 -0.493622 -2.393259
v -0.970513 -0.582069 -2.465845
v -1.410652 -0.582069 -2.465845
v -0.970513 -0.682978 -2.519782
v -1.410652 -0.682978 -2.519782
v -0.970513 -0.792471 -2.552996
v -1.410652 -0.792471 -2.552996
v -1.289771 -0.870663 -0.842319
v -1.289771 -0.870663 0.899007
v -1.027448 0.786575 -0.443139
v -1.027816 0.786697 0.899008
v -1.289771 -0.074776 1.445069
v -1.289771 0.000000 -0.642729
v -0.947085 0.793641 -0.443140
v -0.947623 0.793788 0.899007
v -1.176933 -0.064759 1.445069
v -1.176933 -0.000000 -0.642729
v -0.444426 -1.000390 3.684975
v -1.037507 -1.004803 3.684975
v -1.289770 -0.647298 3.551016
v -0.103608 -0.601916 3.537839
v -0.444426 -0.224037 3.397507
v -1.037507 -0.265007 3.410684
v -0.785243 -0.622512 3.544642
v -0.444426 -0.612214 3.541241
v -1.037507 -0.634905 3.547829
v -1.290388 -0.243436 3.531237
v -0.785861 -0.201910 3.518491
v -1.290389 -0.604964 3.665196
v -1.038125 -0.222673 3.524864
v -0.785862 -0.580178 3.658823
v -1.038125 -0.592571 3.662009
v -1.290548 -1.041334 3.922051
v -0.104386 -1.032509 3.922051
v -0.786021 -1.033289 3.922051
v -0.445204 -1.032899 3.922051
v -1.038285 -1.037312 3.922051
v -1.290548 -0.679806 3.788093
v -0.104386 -0.634424 3.774916
v -0.786021 -0.655021 3.781719
v -0.445204 -0.644723 3.778317
v -1.038285 -0.667414 3.784906
usemtl Material
s off
f 1 2 9 3 4 20
f 5 23 8 7 12 6
f 1 21 164 159
f 13 12 7 11
f 3 11 7 8 22 4
f 22 24 30 29
f 13 11 18 173 19
f 10 13 19 174 17
f 10 6 12 13
f 176 173 18 172
f 175 177 183 182
f 11 3 15 172 18
f 2 10 17 171 14
f 9 2 14 170 16
f 3 9 16 169 15
f 23 24 22 8
f 5 21 24 23
f 24 21 28 30
f 30 27 26 29
f 28 25 27 30
f 4 22 29 26
f 21 1 25 28
f 1 20 27 25
f 20 4 26 27
f 31 32 34 33
f 33 34 36 35
f 35 36 38 37
f 37 38 40 39
f 39 40 42 41
f 41 42 44 43
f 43 44 46 45
f 45 46 48 47
f 47 48 50 49
f 49 50 52 51
f 51 52 54 53
f 53 54 56 55
f 55 56 58 57
f 57 58 60 59
f 59 60 62 61
f 61 62 64 63
f 63 64 66 65
f 65 66 68 67
f 67 68 70 69
f 69 70 72 71
f 71 72 74 73
f 73 74 76 75
f 75 76 78 77
f 77 78 80 79
f 79 80 82 81
f 81 82 84 83
f 83 84 86 85
f 85 86 88 87
f 87 88 90 89
f 89 90 92 91
f 34 32 94 92 90 88 86 84 82 80 78 76 74 72 70 68 66 64 62 60 58 56 54 52 50 48 46 44 42 40 38 36
f 93 94 32 31
f 91 92 94 93
f 31 33 35 37 39 41 43 45 47 49 51 53 55 57 59 61 63 65 67 69 71 73 75 77 79 81 83 85 87 89 91 93
f 95 96 98 97
f 97 98 100 99
f 99 100 102 101
f 101 102 104 103
f 103 104 106 105
f 105 106 108 107
f 107 108 110 109
f 109 110 112 111
f 111 112 114 113
f 113 114 116 115
f 115 116 118 117
f 117 118 120 119
f 119 120 122 121
f 121 122 124 123
f 123 124 126 125
f 125 126 128 127
f 127 128 130 129
f 129 130 132 131
f 131 132 134 133
f 133 134 136 135
f 135 136 138 137
f 137 138 140 139
f 139 140 142 141
f 141 142 144 143
f 143 144 146 145
f 145 146 148 147
f 147 148 150 149
f 149 150 152 151
f 151 152 154 153
f 153 154 156 155
f 98 96 158 156 154 152 150 148 146 144 142 140 138 136 134 132 130 128 126 124 122 120 118 116 114 112 110 108 106 104 102 100
f 157 158 96 95
f 155 156 158 157
f 95 97 99 101 103 105 107 109 111 113 115 117 119 121 123 125 127 129 131 133 135 137 139 141 143 145 147 149 151 153 155 157
f 159 164 163 160
f 10 2 160 163
f 5 6 162 161
f 6 10 163 162
f 21 5 161 164
f 2 1 159 160
f 163 164 168 167
f 168 165 166 167
f 161 162 166 165
f 162 163 167 166
f 164 161 165 168
f 176 172 190 192
f 175 176 192 191
f 175 19 173 176
f 177 175 191 193
f 171 177 193 189
f 177 171 180 183
f 183 181 179 182
f 180 178 181 183
f 19 175 182 179
f 17 174 181 178
f 174 19 179 181
f 171 17 178 180
f 187 192 190 185
f 186 191 192 187
f 188 193 191 186
f 184 189 193 188
f 172 15 185 190
f 14 171 189 184
f 170 14 184 188
f 169 16 186 187
f 16 170 188 186
f 15 169 187 185
f 194 213 197 196 202 195
f 198 199 205 200 201 216
f 194 352 357 214
f 206 204 200 205
f 196 197 215 201 200 204
f 215 222 223 217
f 206 212 366 211 204
f 203 210 367 212 206
f 203 206 205 199
f 369 365 211 366
f 368 375 376 370
f 204 211 365 208 196
f 195 207 364 210 203
f 202 209 363 207 195
f 196 208 362 209 202
f 216 201 215 217
f 198 216 217 214
f 217 223 221 214
f 223 222 219 220
f 221 223 220 218
f 197 219 222 215
f 214 221 218 194
f 194 218 220 213
f 213 220 219 197
f 224 226 227 225
f 226 228 229 227
f 228 230 231 229
f 230 232 233 231
f 232 234 235 233
f 234 236 237 235
f 236 238 239 237
f 238 240 241 239
f 240 242 243 241
f 242 244 245 243
f 244 246 247 245
f 246 248 249 247
f 248 250 251 249
f 250 252 253 251
f 252 254 255 253
f 254 256 257 255
f 256 258 259 257
f 258 260 261 259
f 260 262 263 261
f 262 264 265 263
f 264 266 267 265
f 266 268 269 267
f 268 270 271 269
f 270 272 273 271
f 272 274 275 273
f 274 276 277 275
f 276 278 279 277
f 278 280 281 279
f 280 282 283 281
f 282 284 285 283
f 227 229 231 233 235 237 239 241 243 245 247 249 251 253 255 257 259 261 263 265 267 269 271 273 275 277 279 281 283 285 287 225
f 286 224 225 287
f 284 286 287 285
f 224 286 284 282 280 278 276 274 272 270 268 266 264 262 260 258 256 254 252 250 248 246 244 242 240 238 236 234 232 230 228 226
f 288 290 291 289
f 290 292 293 291
f 292 294 295 293
f 294 296 297 295
f 296 298 299 297
f 298 300 301 299
f 300 302 303 301
f 302 304 305 303
f 304 306 307 305
f 306 308 309 307
f 308 310 311 309
f 310 312 313 311
f 312 314 315 313
f 314 316 317 315
f 316 318 319 317
f 318 320 321 319
f 320 322 323 321
f 322 324 325 323
f 324 326 327 325
f 326 328 329 327
f 328 330 331 329
f 330 332 333 331
f 332 334 335 333
f 334 336 337 335
f 336 338 339 337
f 338 340 341 339
f 340 342 343 341
f 342 344 345 343
f 344 346 347 345
f 346 348 349 347
f 291 293 295 297 299 301 303 305 307 309 311 313 315 317 319 321 323 325 327 329 331 333 335 337 339 341 343 345 347 349 351 289
f 350 288 289 351
f 348 350 351 349
f 288 350 348 346 344 342 340 338 336 334 332 330 328 326 324 322 320 318 316 314 312 310 308 306 304 302 300 298 296 294 292 290
f 352 353 356 357
f 203 356 353 195
f 198 354 355 199
f 199 355 356 203
f 214 357 354 198
f 195 353 352 194
f 356 360 361 357
f 361 360 359 358
f 354 358 359 355
f 355 359 360 356
f 357 361 358 354
f 369 385 383 365
f 368 384 385 369
f 368 369 366 212
f 370 386 384 368
f 364 382 386 370
f 370 376 373 364
f 376 375 372 374
f 373 376 374 371
f 212 372 375 368
f 210 371 374 367
f 367 374 372 212
f 364 373 371 210
f 380 378 383 385
f 379 380 385 384
f 381 379 384 386
f 377 381 386 382
f 365 383 378 208
f 207 377 382 364
f 363 381 377 207
f 362 380 379 209
f 209 379 381 363
f 208 378 380 362
