in-1 1 1 0 0 1;
in-2 1 1 0 0 1;
in-3 1 1 0 0 1;
in-4 1 1 0 0 1;
in-5 1 3 0 0.365932 0.966102;
in-6 1 3 0 0.348983 0.966102;
in-7 1 6 0 0 1;
in-8 1 2 0 0.1 1;
micro-1 1;
micro-2 0;
micro-3 0;
micro-4 0;
out-1 0.270833 0.5;
out-2 0.0825404 0.5;
out-3 0.854167 0.5;
out-4 0.00681292 0.5;
out-5 0.520833 0.5;
out-6 0.4375 0.5;
out-7 0.416667 0.5;
out-8 0.645833 0.5;
out-9 0.6 0.5;
out-10 0.6 0.5;
