in-1 0 1 0 0 1;
in-2 0 1 0 0 1;
in-3 0 1 0 0 1;
in-4 0 1 0 0 1;
in-5 0 3 0 0.230339 1;
in-6 0 3 0 0.21339 1;
in-7 0 6 0 0 1;
in-8 0 2 0 0.1 0.9;
micro-1 0;
micro-2 0;
micro-3 0;
micro-4 0;
out-1 0.4375 0.5;
out-2 0.375 0.5;
out-3 0.4375 0.5;
out-4 0.458333 0.5;
out-5 0.4375 0.5;
out-6 0.5 0.5;
out-7 0.395833 0.5;
out-8 0.354167 0.5;
out-9 0.479167 0.5;
out-10 0.458333 0.5;
