in-1 0 1 0 0 1;
in-2 0 1 0 0 1;
in-3 0 1 0 0 1;
in-4 0 1 0 0 1;
in-5 1 5 0 0.322034 1;
in-6 1 5 0 0.305085 1;
in-7 1 6 0 0 1;
in-8 1 2 0 0 1;
micro-1 1;
micro-2 0;
micro-3 0;
micro-4 0;
out-1 0.00383119 0.5;
out-2 0.0177828 0.5;
out-3 0.583333 0.5;
out-4 0.00681292 0.5;
out-5 0.583333 0.5;
out-6 0.0681292 0.5;
out-7 0.464159 0.5;
out-8 0.791667 0.5;
out-9 0.6 0.5;
out-10 0.6 0.5;
