in-1 1 1 0 0 1;
in-2 1 1 0 0 1;
in-3 0 1 0 0 1;
in-4 0 1 0 0 1;
in-5 0 3 0 0.230339 1;
in-6 0 3 0 0.21339 1;
in-7 0 6 0 0 1;
in-8 1 2 0 0.1 0.9;
micro-1 1;
micro-2 0;
micro-3 0;
micro-4 0;
out-1 0 0.5;
out-2 0 0.5;
out-3 0 0.5;
out-4 0 0.545455;
out-5 0 0.5;
out-6 0 0.5;
out-7 0 0.5;
out-8 0 0.5;
out-9 0.770833 0.5;
out-10 0 0.5;
